College Coursework/Digital Design II Final Project/traffic_controller_TB.vcd
$date
	Tue Nov 02 08:15:18 2021
$end
$version
	Icarus Verilog
$end
$timescale
	1ps
$end
$scope module traffic_controller_TB $end
$var wire 1 ! yLR_min $end
$var wire 1 " yLR_Maj $end
$var wire 1 # yA_min $end
$var wire 1 $ yA_Maj $end
$var wire 1 % rMR_Maj $end
$var wire 1 & rLR_min $end
$var wire 1 ' rA_Maj $end
$var wire 1 ( i_min $end
$var wire 1 ) i_Maj $end
$var wire 1 * h_min $end
$var wire 1 + h_Maj $end
$var wire 1 , g_min $end
$var wire 1 - g_Maj $end
$var wire 1 . gLR_min $end
$var wire 1 / gLR_Maj $end
$var wire 1 0 gA_min $end
$var wire 1 1 gA_Maj $end
$var wire 1 2 f_min $end
$var wire 1 3 f_Maj $end
$var wire 1 4 e_min $end
$var wire 1 5 e_Maj $end
$var wire 1 6 d_min $end
$var wire 1 7 d_Maj $end
$var wire 1 8 c_min $end
$var wire 1 9 c_Maj $end
$var wire 1 : b_min $end
$var wire 1 ; b_Maj $end
$var wire 1 < a_min $end
$var wire 1 = a_Maj $end
$var wire 1 > W_min $end
$var wire 1 ? W_Maj $end
$var wire 1 @ DW_min $end
$var wire 1 A DW_Maj $end
$var reg 1 B CAR $end
$var reg 1 C CLK_24hr $end
$var reg 1 D CLOCK $end
$var reg 1 E EMERGENCY $end
$var reg 1 F RESET $end
$var reg 1 G WALK $end
$scope module TC0 $end
$var wire 1 B CAR $end
$var wire 1 C CLK_24hr $end
$var wire 1 D CLOCK $end
$var wire 1 E EMERGENCY $end
$var wire 1 F RESET $end
$var wire 1 H RST_int $end
$var wire 1 I RST_int2 $end
$var wire 1 J SET_srl $end
$var wire 1 G WALK $end
$var wire 1 K W_C $end
$var wire 1 L not_CLK_24hr $end
$var wire 1 M temp2 $end
$var wire 1 ! yLR_min $end
$var wire 1 " yLR_Maj $end
$var wire 1 # yA_min $end
$var wire 1 $ yA_Maj $end
$var wire 1 % rMR_Maj $end
$var wire 1 & rLR_min $end
$var wire 1 ' rA_Maj $end
$var wire 1 ( i_min $end
$var wire 1 ) i_Maj $end
$var wire 1 * h_min $end
$var wire 1 + h_Maj $end
$var wire 1 , g_min $end
$var wire 1 - g_Maj $end
$var wire 1 . gLR_min $end
$var wire 1 / gLR_Maj $end
$var wire 1 0 gA_min $end
$var wire 1 1 gA_Maj $end
$var wire 1 2 f_min $end
$var wire 1 3 f_Maj $end
$var wire 1 N en_countdown_m $end
$var wire 1 O en_countdown_M $end
$var wire 1 4 e_min $end
$var wire 1 5 e_Maj $end
$var wire 1 6 d_min $end
$var wire 1 7 d_Maj $end
$var wire 1 8 c_min $end
$var wire 1 9 c_Maj $end
$var wire 1 : b_min $end
$var wire 1 ; b_Maj $end
$var wire 1 < a_min $end
$var wire 1 = a_Maj $end
$var wire 1 > W_min $end
$var wire 1 ? W_Maj $end
$var wire 1 P T9 $end
$var wire 1 Q T8 $end
$var wire 1 R T7 $end
$var wire 1 S T6 $end
$var wire 1 T T5 $end
$var wire 1 U T4 $end
$var wire 1 V T3 $end
$var wire 1 W T2 $end
$var wire 1 X T1 $end
$var wire 1 Y T0 $end
$var wire 1 Z S4 $end
$var wire 1 [ S3 $end
$var wire 1 \ S2 $end
$var wire 1 ] S1 $end
$var wire 1 ^ S0 $end
$var wire 1 @ DW_min $end
$var wire 1 A DW_Maj $end
$var wire 1 _ CD9s $end
$var wire 1 ` CD9_m $end
$var wire 1 a CD9_M $end
$var wire 1 b CD8s $end
$var wire 1 c CD8_m $end
$var wire 1 d CD8_M $end
$var wire 1 e CD7s $end
$var wire 1 f CD7_m $end
$var wire 1 g CD7_M $end
$var wire 1 h CD6s $end
$var wire 1 i CD6_m $end
$var wire 1 j CD6_M $end
$var wire 1 k CD5s $end
$var wire 1 l CD5_m $end
$var wire 1 m CD5_M $end
$var wire 1 n CD4s $end
$var wire 1 o CD4_m $end
$var wire 1 p CD4_M $end
$var wire 1 q CD3s $end
$var wire 1 r CD3_m $end
$var wire 1 s CD3_M $end
$var wire 1 t CD2s $end
$var wire 1 u CD2_m $end
$var wire 1 v CD2_M $end
$var wire 1 w CD1s $end
$var wire 1 x CD1_m $end
$var wire 1 y CD1_M $end
$var wire 1 z CD0s $end
$var wire 1 { CD0_m $end
$var wire 1 | CD0_M $end
$scope module LC0 $end
$var wire 1 D CLOCK $end
$var wire 1 A DW_Maj $end
$var wire 1 @ DW_min $end
$var wire 1 E EM $end
$var wire 1 } EM_CLK $end
$var wire 1 L EN_S0 $end
$var wire 1 C EN_T0 $end
$var wire 1 ~ S0_CLK $end
$var wire 1 !" S0_int $end
$var wire 1 "" S3_CLK $end
$var wire 1 #" T0_int $end
$var wire 1 $" T8_CLK $end
$var wire 1 ? W_Maj $end
$var wire 1 > W_min $end
$var wire 1 = a_Maj $end
$var wire 1 < a_min $end
$var wire 1 ; b_Maj $end
$var wire 1 : b_min $end
$var wire 1 9 c_Maj $end
$var wire 1 8 c_min $end
$var wire 1 7 d_Maj $end
$var wire 1 6 d_min $end
$var wire 1 5 e_Maj $end
$var wire 1 4 e_min $end
$var wire 1 3 f_Maj $end
$var wire 1 2 f_min $end
$var wire 1 1 gA_Maj $end
$var wire 1 0 gA_min $end
$var wire 1 / gLR_Maj $end
$var wire 1 . gLR_min $end
$var wire 1 - g_Maj $end
$var wire 1 , g_min $end
$var wire 1 + h_Maj $end
$var wire 1 * h_min $end
$var wire 1 ) i_Maj $end
$var wire 1 ( i_min $end
$var wire 1 %" not_EM $end
$var wire 1 &" not_en_countdown_M $end
$var wire 1 '" not_en_countdown_m $end
$var wire 1 ' rA_Maj $end
$var wire 1 & rLR_min $end
$var wire 1 % rMR_Maj $end
$var wire 1 (" w1 $end
$var wire 1 )" w2 $end
$var wire 1 *" w3 $end
$var wire 1 +" w4 $end
$var wire 1 ," w5 $end
$var wire 1 -" w6 $end
$var wire 1 ." w7 $end
$var wire 1 $ yA_Maj $end
$var wire 1 # yA_min $end
$var wire 1 " yLR_Maj $end
$var wire 1 ! yLR_min $end
$var wire 1 N en_countdown_m $end
$var wire 1 O en_countdown_M $end
$var wire 1 P T9 $end
$var wire 1 Q T8 $end
$var wire 1 R T7 $end
$var wire 1 S T6 $end
$var wire 1 T T5 $end
$var wire 1 U T4 $end
$var wire 1 V T3 $end
$var wire 1 W T2 $end
$var wire 1 X T1 $end
$var wire 1 Y T0 $end
$var wire 1 Z S4 $end
$var wire 1 [ S3 $end
$var wire 1 \ S2 $end
$var wire 1 ] S1 $end
$var wire 1 ^ S0 $end
$var wire 1 _ CD9s $end
$var wire 1 ` CD9_m $end
$var wire 1 a CD9_M $end
$var wire 1 b CD8s $end
$var wire 1 c CD8_m $end
$var wire 1 d CD8_M $end
$var wire 1 e CD7s $end
$var wire 1 f CD7_m $end
$var wire 1 g CD7_M $end
$var wire 1 h CD6s $end
$var wire 1 i CD6_m $end
$var wire 1 j CD6_M $end
$var wire 1 k CD5s $end
$var wire 1 l CD5_m $end
$var wire 1 m CD5_M $end
$var wire 1 n CD4s $end
$var wire 1 o CD4_m $end
$var wire 1 p CD4_M $end
$var wire 1 q CD3s $end
$var wire 1 r CD3_m $end
$var wire 1 s CD3_M $end
$var wire 1 t CD2s $end
$var wire 1 u CD2_m $end
$var wire 1 v CD2_M $end
$var wire 1 w CD1s $end
$var wire 1 x CD1_m $end
$var wire 1 y CD1_M $end
$var wire 1 z CD0s $end
$var wire 1 { CD0_m $end
$var wire 1 | CD0_M $end
$upscope $end
$scope module SM0 $end
$var wire 1 /" CLK_int $end
$var wire 1 D CLOCK $end
$var wire 1 0" EN_int $end
$var wire 1 I RESET $end
$var wire 1 J SET_srl $end
$var wire 1 L enable_sensor_mode $end
$var wire 1 1" not_CLK_int $end
$var wire 1 2" temp1 $end
$var wire 1 3" temp3 $end
$var wire 1 4" sig_int $end
$var wire 4 5" select_int2 [3:0] $end
$var wire 3 6" select_int1 [2:0] $end
$var wire 1 7" latch_reset $end
$var wire 1 8" en_countdown_Ms $end
$var wire 1 9" counter3_RST $end
$var wire 1 Z S4 $end
$var wire 1 [ S3 $end
$var wire 1 \ S2 $end
$var wire 1 ] S1 $end
$var wire 1 ^ S0 $end
$var wire 1 :" Q_out $end
$var wire 1 ;" H_int $end
$var wire 1 <" G_int $end
$var wire 1 =" F_int $end
$var wire 1 >" E_int $end
$var wire 1 ?" C_int $end
$var wire 1 _ CD9s $end
$var wire 1 b CD8s $end
$var wire 1 e CD7s $end
$var wire 1 h CD6s $end
$var wire 1 k CD5s $end
$var wire 1 n CD4s $end
$var wire 1 q CD3s $end
$var wire 1 t CD2s $end
$var wire 1 w CD1s $end
$var wire 1 z CD0s $end
$var wire 1 @" B_int $end
$var wire 1 A" A_int $end
$scope module CTR2 $end
$var wire 1 /" CLOCK $end
$var wire 1 I RESET $end
$var wire 1 B" Z $end
$var wire 1 C" Y $end
$var wire 1 D" X $end
$var wire 1 E" W $end
$var wire 1 :" ENABLE $end
$var reg 1 4" control_signal $end
$var reg 1 9" counter3_RST $end
$var reg 4 F" current_state [3:0] $end
$var reg 4 G" next_state [3:0] $end
$upscope $end
$scope module CTR3 $end
$var wire 1 /" CLOCK $end
$var wire 1 3" RESET $end
$var wire 1 :" ENABLE $end
$var reg 4 H" current_state [3:0] $end
$var reg 1 7" latch_reset $end
$var reg 4 I" next_state [3:0] $end
$upscope $end
$scope module CTR5 $end
$var wire 1 /" CLOCK $end
$var wire 1 I RESET $end
$var wire 1 ;" H $end
$var wire 1 <" G $end
$var wire 1 =" F $end
$var wire 1 8" ENABLE $end
$var wire 1 >" E $end
$var reg 4 J" current_state [3:0] $end
$var reg 4 K" next_state [3:0] $end
$upscope $end
$scope module LDEC2 $end
$var wire 3 L" select [2:0] $end
$var reg 1 ^ out0 $end
$var reg 1 ] out1 $end
$var reg 1 \ out2 $end
$var reg 1 [ out3 $end
$var reg 1 Z out4 $end
$upscope $end
$scope module LFSM2 $end
$var wire 1 /" CLOCK $end
$var wire 1 0" ENABLE $end
$var wire 1 I RESET $end
$var wire 1 ?" C $end
$var wire 1 @" B $end
$var wire 1 A" A $end
$var reg 3 M" current_state [2:0] $end
$var reg 1 8" en_countdown_Ms $end
$var reg 3 N" next_state [2:0] $end
$upscope $end
$scope module SRL1 $end
$var wire 1 2" RESET $end
$var wire 1 J SET $end
$var reg 1 :" Q_out $end
$upscope $end
$scope module WSD1 $end
$var wire 4 O" select [3:0] $end
$var reg 1 z out0 $end
$var reg 1 w out1 $end
$var reg 1 t out2 $end
$var reg 1 q out3 $end
$var reg 1 n out4 $end
$var reg 1 k out5 $end
$var reg 1 h out6 $end
$var reg 1 e out7 $end
$var reg 1 b out8 $end
$var reg 1 _ out9 $end
$upscope $end
$upscope $end
$scope module TM0 $end
$var wire 1 P" CLK_int $end
$var wire 1 D CLOCK $end
$var wire 1 Q" EN_int $end
$var wire 1 M RESET $end
$var wire 1 C enable_timer_mode $end
$var wire 1 R" not_CLK_int $end
$var wire 1 S" sig_int $end
$var wire 4 T" select_int3 [3:0] $end
$var wire 4 U" select_int2 [3:0] $end
$var wire 4 V" select_int1 [3:0] $end
$var wire 1 N en_countdown_m $end
$var wire 1 O en_countdown_M $end
$var wire 1 W" Z_int $end
$var wire 1 X" Y_int $end
$var wire 1 Y" X_int $end
$var wire 1 Z" W_int $end
$var wire 1 P T9 $end
$var wire 1 Q T8 $end
$var wire 1 R T7 $end
$var wire 1 S T6 $end
$var wire 1 T T5 $end
$var wire 1 U T4 $end
$var wire 1 V T3 $end
$var wire 1 W T2 $end
$var wire 1 X T1 $end
$var wire 1 Y T0 $end
$var wire 1 [" H_int $end
$var wire 1 \" G_int $end
$var wire 1 ]" F_int $end
$var wire 1 ^" E_int $end
$var wire 1 _" D_int $end
$var wire 1 `" C_int $end
$var wire 1 ` CD9_m $end
$var wire 1 a CD9_M $end
$var wire 1 c CD8_m $end
$var wire 1 d CD8_M $end
$var wire 1 f CD7_m $end
$var wire 1 g CD7_M $end
$var wire 1 i CD6_m $end
$var wire 1 j CD6_M $end
$var wire 1 l CD5_m $end
$var wire 1 m CD5_M $end
$var wire 1 o CD4_m $end
$var wire 1 p CD4_M $end
$var wire 1 r CD3_m $end
$var wire 1 s CD3_M $end
$var wire 1 u CD2_m $end
$var wire 1 v CD2_M $end
$var wire 1 x CD1_m $end
$var wire 1 y CD1_M $end
$var wire 1 { CD0_m $end
$var wire 1 | CD0_M $end
$var wire 1 a" B_int $end
$var wire 1 b" A_int $end
$scope module CTR1 $end
$var wire 1 P" CLOCK $end
$var wire 1 M RESET $end
$var reg 1 S" control_signal $end
$var reg 6 c" current_state [5:0] $end
$var reg 1 O en_countdown_M $end
$var reg 1 N en_countdown_m $end
$var reg 6 d" next_state [5:0] $end
$upscope $end
$scope module CTR4 $end
$var wire 1 P" CLOCK $end
$var wire 1 O ENABLE $end
$var wire 1 M RESET $end
$var wire 1 W" Z $end
$var wire 1 X" Y $end
$var wire 1 Y" X $end
$var wire 1 Z" W $end
$var reg 4 e" current_state [3:0] $end
$var reg 4 f" next_state [3:0] $end
$upscope $end
$scope module CTR6 $end
$var wire 1 P" CLOCK $end
$var wire 1 N ENABLE $end
$var wire 1 M RESET $end
$var wire 1 [" H $end
$var wire 1 \" G $end
$var wire 1 ]" F $end
$var wire 1 ^" E $end
$var reg 4 g" current_state [3:0] $end
$var reg 4 h" next_state [3:0] $end
$upscope $end
$scope module LDEC $end
$var wire 4 i" select [3:0] $end
$var reg 1 Y out0 $end
$var reg 1 X out1 $end
$var reg 1 W out2 $end
$var reg 1 V out3 $end
$var reg 1 U out4 $end
$var reg 1 T out5 $end
$var reg 1 S out6 $end
$var reg 1 R out7 $end
$var reg 1 Q out8 $end
$var reg 1 P out9 $end
$upscope $end
$scope module LFSM $end
$var wire 1 P" CLOCK $end
$var wire 1 Q" ENABLE $end
$var wire 1 M RESET $end
$var wire 1 _" D $end
$var wire 1 `" C $end
$var wire 1 a" B $end
$var wire 1 b" A $end
$var reg 4 j" current_state [3:0] $end
$var reg 4 k" next_state [3:0] $end
$upscope $end
$scope module TD_M $end
$var wire 4 l" select [3:0] $end
$var reg 1 | out0 $end
$var reg 1 y out1 $end
$var reg 1 v out2 $end
$var reg 1 s out3 $end
$var reg 1 p out4 $end
$var reg 1 m out5 $end
$var reg 1 j out6 $end
$var reg 1 g out7 $end
$var reg 1 d out8 $end
$var reg 1 a out9 $end
$upscope $end
$scope module TD_m $end
$var wire 4 m" select [3:0] $end
$var reg 1 { out0 $end
$var reg 1 x out1 $end
$var reg 1 u out2 $end
$var reg 1 r out3 $end
$var reg 1 o out4 $end
$var reg 1 l out5 $end
$var reg 1 i out6 $end
$var reg 1 f out7 $end
$var reg 1 c out8 $end
$var reg 1 ` out9 $end
$upscope $end
$upscope $end
$upscope $end
$upscope $end
$enddefinitions $end
#0
$dumpvars
b0 m"
b0 l"
b1 k"
b0 j"
b0 i"
b1 h"
b0 g"
b1 f"
b0 e"
b1 d"
b0 c"
0b"
0a"
0`"
0_"
0^"
0]"
0\"
0["
0Z"
0Y"
0X"
0W"
b0 V"
b0 U"
b0 T"
1S"
1R"
1Q"
0P"
b0 O"
b1 N"
b0 M"
b0 L"
b1 K"
b0 J"
b1 I"
b0 H"
b1 G"
b0 F"
0E"
0D"
0C"
0B"
0A"
0@"
0?"
0>"
0="
0<"
0;"
0:"
19"
08"
07"
b0 6"
b0 5"
04"
13"
12"
11"
00"
0/"
0."
1-"
0,"
0+"
1*"
1)"
0("
1'"
1&"
1%"
0$"
1#"
0""
0!"
0~
0}
1|
1{
1z
0y
0x
0w
0v
0u
0t
0s
0r
0q
0p
0o
0n
0m
0l
0k
0j
0i
0h
0g
0f
0e
0d
0c
0b
0a
0`
0_
1^
0]
0\
0[
0Z
1Y
0X
0W
0V
0U
0T
0S
0R
0Q
0P
0O
0N
1M
0L
0K
0J
1I
1H
0G
1F
0E
0D
1C
0B
1A
1@
0?
0>
1=
1<
1;
1:
19
18
17
16
15
14
13
12
01
00
0/
0.
0-
0,
1+
1*
1)
1(
1'
1&
1%
0$
0#
0"
0!
$end
#5000
0Q"
0R"
1P"
1D
#6000
0M
0H
0F
#10000
1Q"
1R"
0P"
0D
#15000
0'
0)"
0#"
11
1X
0Y
b10 d"
0S"
b10 k"
b1 V"
b1 i"
1b"
b1 c"
b1 j"
0Q"
0R"
1P"
1D
#20000
1R"
0P"
0D
#25000
b11 d"
b10 c"
0R"
1P"
1D
#30000
1R"
0P"
0D
#35000
b100 d"
b11 c"
0R"
1P"
1D
#40000
1R"
0P"
0D
#45000
b101 d"
b100 c"
0R"
1P"
1D
#50000
1R"
0P"
0D
#55000
b110 d"
b101 c"
0R"
1P"
1D
#60000
1R"
0P"
0D
#65000
b111 d"
b110 c"
0R"
1P"
1D
#70000
1R"
0P"
0D
#75000
b1000 d"
1S"
b111 c"
0R"
1P"
1D
#80000
1Q"
1R"
0P"
0D
#85000
1$
1W
01
0X
b1001 d"
0S"
b11 k"
0b"
b10 V"
b10 i"
1a"
b1000 c"
b10 j"
0Q"
0R"
1P"
1D
#90000
1R"
0P"
0D
#95000
b1010 d"
b1001 c"
0R"
1P"
1D
#100000
1R"
0P"
0D
#105000
b1011 d"
1S"
b1010 c"
0R"
1P"
1D
#110000
1Q"
1R"
0P"
0D
#115000
1'
1)"
0%
0*"
0@
1>
0$
1/
1V
0W
b1100 d"
0S"
b100 k"
b11 V"
b11 i"
1b"
b1011 c"
b11 j"
0Q"
0R"
1P"
1D
#120000
1R"
0P"
0D
#125000
b1101 d"
b1100 c"
0R"
1P"
1D
#130000
1R"
0P"
0D
#135000
b1110 d"
b1101 c"
0R"
1P"
1D
#140000
1R"
0P"
0D
#145000
b1111 d"
b1110 c"
0R"
1P"
1D
#150000
1R"
0P"
0D
#155000
b10000 d"
b1111 c"
0R"
1P"
1D
#160000
1R"
0P"
0D
#165000
b10001 d"
b10000 c"
0R"
1P"
1D
#170000
1R"
0P"
0D
#175000
b10010 d"
b10001 c"
0R"
1P"
1D
#180000
1R"
0P"
0D
#185000
b10011 d"
b10010 c"
0R"
1P"
1D
#190000
1R"
0P"
0D
#195000
b10100 d"
b10011 c"
0R"
1P"
1D
#200000
1R"
0P"
0D
#205000
b10101 d"
b10100 c"
0R"
1P"
1D
#210000
1R"
0P"
0D
#215000
b10110 d"
b10101 c"
0R"
1P"
1D
#220000
1R"
0P"
0D
#225000
b10111 d"
b10110 c"
0R"
1P"
1D
#230000
1R"
0P"
0D
#235000
b11000 d"
b10111 c"
0R"
1P"
1D
#240000
1R"
0P"
0D
#245000
b11001 d"
b11000 c"
0R"
1P"
1D
#250000
1R"
0P"
0D
#255000
0>
0'"
b11010 d"
1N
b11001 c"
0R"
1P"
1D
#260000
1R"
0P"
0D
#265000
1,
04
1x
0(
0*
0{
b11011 d"
b10 h"
b1 T"
b1 m"
1^"
b11010 c"
b1 g"
0R"
1P"
1D
#270000
1R"
0P"
0D
#275000
14
1u
0x
b11 h"
0^"
b10 T"
b10 m"
1]"
b11100 d"
b10 g"
b11011 c"
0R"
1P"
1D
#280000
1R"
0P"
0D
#285000
0,
06
02
04
1r
0u
b11101 d"
b100 h"
b11 T"
b11 m"
1^"
b11100 c"
b11 g"
0R"
1P"
1D
#290000
1R"
0P"
0D
#295000
1,
0:
16
12
14
1o
0r
b101 h"
0^"
0]"
b100 T"
b100 m"
1\"
b11110 d"
b100 g"
b11101 c"
0R"
1P"
1D
#300000
1R"
0P"
0D
#305000
04
1l
0o
b11111 d"
b110 h"
b101 T"
b101 m"
1^"
b11110 c"
b101 g"
0R"
1P"
1D
#310000
1R"
0P"
0D
#315000
1:
06
0<
1i
0l
b111 h"
0^"
b110 T"
b110 m"
1]"
b100000 d"
1S"
b110 g"
b11111 c"
0R"
1P"
1D
#320000
1Q"
1R"
0P"
0D
#325000
16
1<
02
1"
0/
1f
0i
1U
0V
b100001 d"
0S"
b1000 h"
b111 T"
b111 m"
1^"
b101 k"
0b"
0a"
b100 V"
b100 i"
1`"
b100000 c"
b111 g"
b100 j"
0Q"
0R"
1P"
1D
#330000
1R"
0P"
0D
#335000
08
14
1c
0f
b1001 h"
0^"
0]"
0\"
b1000 T"
b1000 m"
1["
b100010 d"
b1000 g"
b100001 c"
0R"
1P"
1D
#340000
1R"
0P"
0D
#345000
18
0,
04
06
0<
1`
0c
b100011 d"
1S"
b0 h"
b1001 T"
b1001 m"
1^"
b100010 c"
b1001 g"
0R"
1P"
1D
#350000
1Q"
1R"
0P"
0D
#355000
1<
16
1%
12
1*"
14
18
1:
0"
0`
1(
1*
1{
1'"
1T
0U
b1 h"
0^"
b0 T"
b0 m"
0["
b100100 d"
0N
b110 k"
b101 V"
b101 i"
1b"
b0 g"
b100011 c"
b101 j"
0Q"
0R"
1P"
1D
#360000
1Q"
1R"
0P"
0D
#365000
10
1S
0T
b100101 d"
0S"
b111 k"
0b"
b110 V"
b110 i"
1a"
b100100 c"
b110 j"
0Q"
0R"
1P"
1D
#370000
1R"
0P"
0D
#375000
b100110 d"
b100101 c"
0R"
1P"
1D
#380000
1R"
0P"
0D
#385000
b100111 d"
b100110 c"
0R"
1P"
1D
#390000
1R"
0P"
0D
#395000
b101000 d"
b100111 c"
0R"
1P"
1D
#400000
1R"
0P"
0D
#405000
b101001 d"
b101000 c"
0R"
1P"
1D
#410000
1R"
0P"
0D
#415000
b101010 d"
1S"
b101001 c"
0R"
1P"
1D
#420000
1Q"
1R"
0P"
0D
#425000
1#
1."
1R
00
0S
b101011 d"
0S"
b1000 k"
b111 V"
b111 i"
1b"
b101010 c"
b111 j"
0Q"
0R"
1P"
1D
#430000
1R"
0P"
0D
#435000
b101100 d"
b101011 c"
0R"
1P"
1D
#440000
1R"
0P"
0D
#445000
b101101 d"
1S"
b101100 c"
0R"
1P"
1D
#450000
1Q"
1R"
0P"
0D
#455000
0A
1#
1."
0&
1?
1.
1$"
0-"
1Q
0R
b101110 d"
0S"
b1001 k"
0b"
0a"
0`"
b1000 V"
b1000 i"
1_"
b101101 c"
b1000 j"
0Q"
0R"
1P"
1D
#460000
0#
0."
1R"
0$"
0P"
0D
#465000
b101111 d"
b101110 c"
1#
1."
0R"
1$"
1P"
1D
#470000
0#
0."
1R"
0$"
0P"
0D
#475000
b110000 d"
b101111 c"
1#
1."
0R"
1$"
1P"
1D
#480000
0#
0."
1R"
0$"
0P"
0D
#485000
b110001 d"
b110000 c"
1#
1."
0R"
1$"
1P"
1D
#490000
0#
0."
1R"
0$"
0P"
0D
#495000
b110010 d"
b110001 c"
1#
1."
0R"
1$"
1P"
1D
#500000
0#
0."
1R"
0$"
0P"
0D
#505000
0?
0&"
b110011 d"
1O
b110010 c"
1#
1."
0R"
1$"
1P"
1D
#510000
0#
0."
1R"
0$"
0P"
0D
#515000
1-
1y
0|
b10 f"
b1 U"
b1 l"
1Z"
b110100 d"
b1 e"
b110011 c"
1#
1."
0R"
1$"
1P"
1D
#520000
0#
0."
1R"
0$"
0P"
0D
#525000
1v
0y
b110101 d"
b11 f"
0Z"
b10 U"
b10 l"
1Y"
b110100 c"
b10 e"
1#
1."
0R"
1$"
1P"
1D
#530000
0#
0."
1R"
0$"
0P"
0D
#535000
0-
1s
0v
b100 f"
b11 U"
b11 l"
1Z"
b110110 d"
b11 e"
b110101 c"
1#
1."
0R"
1$"
1P"
1D
#540000
0#
0."
1R"
0$"
0P"
0D
#545000
1-
1p
0s
b110111 d"
b101 f"
0Z"
0Y"
b100 U"
b100 l"
1X"
b110110 c"
b100 e"
1#
1."
0R"
1$"
1P"
1D
#550000
0#
0."
1R"
0$"
0P"
0D
#555000
1m
0p
b110 f"
b101 U"
b101 l"
1Z"
b111000 d"
b101 e"
b110111 c"
1#
1."
0R"
1$"
1P"
1D
#560000
0#
0."
1R"
0$"
0P"
0D
#565000
1j
0m
b111001 d"
1S"
b111 f"
0Z"
b110 U"
b110 l"
1Y"
b111000 c"
b110 e"
1#
1."
0R"
1$"
1P"
1D
#570000
0#
0."
1Q"
1R"
0$"
0P"
0D
#575000
1!
0.
1g
0j
1P
0Q
b1000 f"
b111 U"
b111 l"
1Z"
b111010 d"
0S"
b0 k"
b1001 V"
b1001 i"
1b"
b111 e"
b111001 c"
b1001 j"
1#
1."
0Q"
0R"
0$"
1P"
1D
#580000
1R"
0P"
0D
#585000
1d
0g
b111011 d"
b1001 f"
0Z"
0Y"
0X"
b1000 U"
b1000 l"
1W"
b111010 c"
b1000 e"
0R"
1P"
1D
#590000
1R"
0P"
0D
#595000
0-
1a
0d
b0 f"
b1001 U"
b1001 l"
1Z"
b0 d"
1S"
b1001 e"
b111011 c"
0R"
1P"
1D
#600000
1Q"
1R"
0P"
0D
#605000
1A
1&
1-"
1@
0#
1%
1'
1#"
0!
0."
1*"
1)"
1&"
0a
1|
0P
1Y
b1 d"
0O
b1 f"
0Z"
b0 U"
b0 l"
0W"
b1 k"
0b"
b0 V"
b0 i"
0_"
b0 c"
b0 e"
b0 j"
0Q"
0R"
1P"
1D
#610000
1Q"
1R"
0P"
0D
#612000
0'
0%
0)"
0*"
0-"
0@
1,"
1/
1>
1!"
02"
1M
0#"
0I
1L
0C
#615000
1$
01"
1~
1/"
1D
#620000
0$
11"
0~
0/"
0D
#625000
1$
01"
1~
1/"
1D
#630000
0$
11"
0~
0/"
0D
#635000
1$
01"
1~
1/"
1D
#640000
0$
11"
0~
0/"
0D
#645000
1$
01"
1~
1/"
1D
#650000
0$
11"
0~
0/"
0D
#655000
1$
01"
1~
1/"
1D
#657000
1:"
1J
1K
1G
#658000
0J
0K
0G
#660000
0$
11"
0~
0/"
0D
#665000
03"
b10 G"
09"
14"
1E"
b1 F"
1$
01"
1~
1/"
1D
#670000
10"
0$
11"
0~
0/"
0D
#675000
1@
0/
0>
0!"
1"
1]
0^
b11 G"
04"
0E"
1D"
b10 I"
b10 N"
b1 6"
b1 L"
1A"
b10 F"
b1 H"
b1 M"
00"
1$
01"
0~
1/"
1D
#680000
11"
0/"
0D
#685000
b11 I"
b100 G"
1E"
b10 H"
b11 F"
01"
1/"
1D
#690000
11"
0/"
0D
#695000
b101 G"
14"
0E"
0D"
1C"
b100 I"
b100 F"
b11 H"
01"
1/"
1D
#700000
10"
11"
0/"
0D
#705000
1%
1'
1+"
1("
0$
0"
1\
0]
b101 I"
b110 G"
1E"
b11 N"
0A"
b10 6"
b10 L"
1@"
b100 H"
b101 F"
b10 M"
00"
01"
1/"
1D
#710000
10"
11"
0/"
0D
#715000
1#
0&
0,"
1.
1""
0A
1[
0\
b111 G"
04"
0E"
1D"
b110 I"
b100 N"
18"
b11 6"
b11 L"
1A"
b110 F"
b101 H"
b11 M"
00"
01"
1/"
1D
#720000
0#
11"
0""
0/"
0D
#725000
1-
1w
0z
b10 K"
b1 5"
b1 O"
1>"
b111 I"
b1000 G"
1E"
b1 J"
b110 H"
b111 F"
1#
01"
1""
1/"
1D
#730000
0#
11"
0""
0/"
0D
#735000
1t
0w
b1001 G"
0E"
0D"
0C"
1B"
b1000 I"
b11 K"
0>"
b10 5"
b10 O"
1="
b1000 F"
b111 H"
b10 J"
1#
01"
1""
1/"
1D
#740000
0#
11"
0""
0/"
0D
#745000
0-
1q
0t
b100 K"
b11 5"
b11 O"
1>"
b1001 I"
b1010 G"
1E"
b11 J"
b1000 H"
b1001 F"
1#
01"
1""
1/"
1D
#750000
0#
11"
0""
0/"
0D
#755000
1-
1n
0q
b1011 G"
0E"
1D"
b1010 I"
b101 K"
0>"
0="
b100 5"
b100 O"
1<"
b1010 F"
b1001 H"
b100 J"
1#
01"
1""
1/"
1D
#760000
0#
11"
0""
0/"
0D
#765000
1k
0n
b110 K"
b101 5"
b101 O"
1>"
b1011 I"
b1100 G"
1E"
b101 J"
b1010 H"
b1011 F"
1#
01"
1""
1/"
1D
#770000
0#
11"
0""
0/"
0D
#775000
1h
0k
b1101 G"
14"
0E"
0D"
1C"
b1100 I"
b111 K"
0>"
b110 5"
b110 O"
1="
b1100 F"
b1011 H"
b110 J"
1#
01"
1""
1/"
1D
#780000
0#
10"
11"
0""
0/"
0D
#785000
1!
0.
1e
0h
1Z
0[
b1000 K"
b111 5"
b111 O"
1>"
b1101 I"
b1110 G"
04"
1E"
b0 N"
0A"
0@"
b100 6"
b100 L"
1?"
b111 J"
b1100 H"
b1101 F"
b100 M"
1#
00"
01"
0""
1/"
1D
#790000
11"
0/"
0D
#795000
1b
0e
b1111 G"
0E"
1D"
b1110 I"
b1001 K"
0>"
0="
0<"
b1000 5"
b1000 O"
1;"
b1110 F"
b1101 H"
b1000 J"
01"
1/"
1D
#800000
11"
0/"
0D
#805000
0-
1_
0b
b0 K"
b1001 5"
b1001 O"
1>"
b1111 I"
b0 G"
14"
1E"
b1001 J"
b1110 H"
b1111 F"
01"
1/"
1D
#810000
10"
11"
0/"
0D
#815000
0:"
1&
1,"
1A
1$
0%
0'
1~
1/
1>
0+"
0("
1!"
0@
0!
0#
13"
12"
0_
1z
0Z
1^
b1 G"
19"
04"
0E"
0D"
0C"
0B"
b0 I"
17"
b1 K"
0>"
b0 5"
b0 O"
0;"
b1 N"
08"
b0 6"
b0 L"
0?"
b0 F"
b1111 H"
b0 J"
b0 M"
00"
01"
1/"
1D
#820000
0$
11"
0~
0/"
0D
#825000
02"
b1 I"
07"
b0 H"
1$
01"
1~
1/"
1D
#830000
0$
11"
0~
0/"
0D
#835000
1$
01"
1~
1/"
1D
#840000
0$
11"
0~
0/"
0D
#845000
1$
01"
1~
1/"
1D
#850000
0$
11"
0~
0/"
0D
#855000
1$
01"
1~
1/"
1D
#860000
0$
11"
0~
0/"
0D
#865000
1$
01"
1~
1/"
1D
#870000
0$
11"
0~
0/"
0D
